16-Confidence-Intervals-Notes.utf8
…
OR if we wanted to be 100% confident! Check out the CIs (RStudio cant plot these!):

CI100 <- CI_sim(level = 1, n = 50)
CI100

## # A tibble: 100 x 5
## # Groups:   replicate [100]
##    replicate lower upper lucky estimate
##        <int> <dbl> <dbl> <lgl>    <dbl>
##  1         1  -Inf   Inf TRUE       NaN
##  2         2  -Inf   Inf TRUE       NaN
##  3         3  -Inf   Inf TRUE       NaN
##  4         4  -Inf   Inf TRUE       NaN
##  5         5  -Inf   Inf TRUE       NaN
##  6         6  -Inf   Inf TRUE       NaN
##  7         7  -Inf   Inf TRUE       NaN
##  8         8  -Inf   Inf TRUE       NaN
##  9         9  -Inf   Inf TRUE       NaN
## 10        10  -Inf   Inf TRUE       NaN
## #  with 90 more rows
…
